TP2.sim/sim_1/impl/timing/xsim/simulate.log
Vivado Simulator 2019.2
Time resolution is 1 ps
din1 = xxxxxxxx, tx1 = x, tx_done1 = x                   0
din2 = xxxxxxxx, tx2 = x, tx_done2 = x                   0
dout1 = xxxxxxxx, rx1 = x, rx_done1 = x                   0
dout2 = xxxxxxxx, rx2 = x, rx_done2 = x                   0
dout2 = xx0xxxxx, rx2 = x, rx_done2 = x                   2
dout2 = xx0xxxx0, rx2 = x, rx_done2 = x                   2
dout2 = x00xxxx0, rx2 = x, rx_done2 = x                   2
dout2 = 000xxxx0, rx2 = x, rx_done2 = x                   2
dout2 = 000xx0x0, rx2 = x, rx_done2 = x                   2
dout2 = 000000x0, rx2 = x, rx_done2 = x                   2
dout2 = 00000000, rx2 = x, rx_done2 = x                   3
din2 = xxxxxxxx, tx2 = x, tx_done2 = 0                   5
din2 = xxxxxxxx, tx2 = 1, tx_done2 = 0                   5
dout1 = xxxxxxxx, rx1 = 1, rx_done1 = x                   5
dout1 = xxxxxxx0, rx1 = 1, rx_done1 = x                   5
dout1 = x0xxxxx0, rx1 = 1, rx_done1 = x                   6
dout1 = x00xxxx0, rx1 = 1, rx_done1 = x                   6
dout1 = 000xxxx0, rx1 = 1, rx_done1 = x                   6
dout2 = 00000000, rx2 = x, rx_done2 = 0                   6
dout1 = 000xx0x0, rx1 = 1, rx_done1 = x                   6
dout1 = 000000x0, rx1 = 1, rx_done1 = x                   6
dout1 = 00000000, rx1 = 1, rx_done1 = x                   7
din1 = xxxxxxxx, tx1 = x, tx_done1 = 0                   9
din1 = xxxxxxxx, tx1 = 1, tx_done1 = 0                   9
dout2 = 00000000, rx2 = 1, rx_done2 = 0                   9
dout1 = 00000000, rx1 = 1, rx_done1 = 0                  10
din1 = 11110101, tx1 = 1, tx_done1 = 0                  30
din1 = 11110101, tx1 = 0, tx_done1 = 0                 124
dout2 = 00000000, rx2 = 0, rx_done2 = 0                 124
din1 = 11110101, tx1 = 1, tx_done1 = 0               52264
dout2 = 00000000, rx2 = 1, rx_done2 = 0               52264
dout2 = 10000000, rx2 = 1, rx_done2 = 0               78336
din1 = 11110101, tx1 = 0, tx_done1 = 0              104424
dout2 = 10000000, rx2 = 0, rx_done2 = 0              104424
dout2 = 11000000, rx2 = 0, rx_done2 = 0              130495
dout2 = 01000000, rx2 = 0, rx_done2 = 0              130496
din1 = 11110101, tx1 = 1, tx_done1 = 0              156584
dout2 = 01000000, rx2 = 1, rx_done2 = 0              156584
dout2 = 01100000, rx2 = 1, rx_done2 = 0              182655
dout2 = 00100000, rx2 = 1, rx_done2 = 0              182655
dout2 = 10100000, rx2 = 1, rx_done2 = 0              182656
din1 = 11110101, tx1 = 0, tx_done1 = 0              208744
dout2 = 10100000, rx2 = 0, rx_done2 = 0              208744
dout2 = 10000000, rx2 = 0, rx_done2 = 0              234815
dout2 = 11000000, rx2 = 0, rx_done2 = 0              234815
dout2 = 01000000, rx2 = 0, rx_done2 = 0              234816
dout2 = 01010000, rx2 = 0, rx_done2 = 0              234816
din1 = 11110101, tx1 = 1, tx_done1 = 0              260904
dout2 = 01010000, rx2 = 1, rx_done2 = 0              260904
dout2 = 01110000, rx2 = 1, rx_done2 = 0              286975
dout2 = 00110000, rx2 = 1, rx_done2 = 0              286975
dout2 = 10110000, rx2 = 1, rx_done2 = 0              286976
dout2 = 10101000, rx2 = 1, rx_done2 = 0              286976
dout2 = 10001000, rx2 = 1, rx_done2 = 0              339135
dout2 = 11001000, rx2 = 1, rx_done2 = 0              339135
dout2 = 11001100, rx2 = 1, rx_done2 = 0              339136
dout2 = 11010100, rx2 = 1, rx_done2 = 0              339136
dout2 = 11110100, rx2 = 1, rx_done2 = 0              391295
dout2 = 11110000, rx2 = 1, rx_done2 = 0              391296
dout2 = 11101000, rx2 = 1, rx_done2 = 0              391296
dout2 = 11101010, rx2 = 1, rx_done2 = 0              391297
dout2 = 11101011, rx2 = 1, rx_done2 = 0              443455
dout2 = 11101111, rx2 = 1, rx_done2 = 0              443456
dout2 = 11110111, rx2 = 1, rx_done2 = 0              443456
dout2 = 11110101, rx2 = 1, rx_done2 = 0              443457
din1 = 11110101, tx1 = 0, tx_done1 = 0              469544
dout2 = 11110101, rx2 = 0, rx_done2 = 0              469544
din1 = 11110101, tx1 = 1, tx_done1 = 0              521704
dout2 = 11110101, rx2 = 1, rx_done2 = 0              521704
dout2 = 11110101, rx2 = 1, rx_done2 = 1              599940
din2 = 11110101, tx2 = 1, tx_done2 = 0              599940
dout2 = 11010101, rx2 = 1, rx_done2 = 1              599955
dout2 = 11010100, rx2 = 1, rx_done2 = 1              599955
dout2 = 10010100, rx2 = 1, rx_done2 = 1              599955
dout2 = 00010100, rx2 = 1, rx_done2 = 1              599956
dout2 = 00010000, rx2 = 1, rx_done2 = 1              599956
dout2 = 00000000, rx2 = 1, rx_done2 = 1              599956
din2 = 11110101, tx2 = 0, tx_done2 = 0              599959
dout1 = 00000000, rx1 = 0, rx_done1 = 0              599959
dout2 = 00000000, rx2 = 1, rx_done2 = 0              599960
din1 = 11110101, tx1 = 1, tx_done1 = 1              626024
din1 = 11110101, tx1 = 1, tx_done1 = 0              626044
din2 = 11110101, tx2 = 1, tx_done2 = 0              652099
dout1 = 00000000, rx1 = 1, rx_done1 = 0              652099
dout1 = 10000000, rx1 = 1, rx_done1 = 0              678181
din2 = 11110101, tx2 = 0, tx_done2 = 0              704259
dout1 = 10000000, rx1 = 0, rx_done1 = 0              704259
dout1 = 11000000, rx1 = 0, rx_done1 = 0              730341
dout1 = 01000000, rx1 = 0, rx_done1 = 0              730341
din2 = 11110101, tx2 = 1, tx_done2 = 0              756419
dout1 = 01000000, rx1 = 1, rx_done1 = 0              756419
dout1 = 00100000, rx1 = 1, rx_done1 = 0              782501
dout1 = 10100000, rx1 = 1, rx_done1 = 0              782501
din2 = 11110101, tx2 = 0, tx_done2 = 0              808579
dout1 = 10100000, rx1 = 0, rx_done1 = 0              808579
dout1 = 11000000, rx1 = 0, rx_done1 = 0              834661
dout1 = 01000000, rx1 = 0, rx_done1 = 0              834661
dout1 = 01010000, rx1 = 0, rx_done1 = 0              834661
din2 = 11110101, tx2 = 1, tx_done2 = 0              860739
dout1 = 01010000, rx1 = 1, rx_done1 = 0              860739
dout1 = 00110000, rx1 = 1, rx_done1 = 0              886821
dout1 = 10110000, rx1 = 1, rx_done1 = 0              886821
dout1 = 10101000, rx1 = 1, rx_done1 = 0              886821
dout1 = 11001000, rx1 = 1, rx_done1 = 0              938981
dout1 = 11001100, rx1 = 1, rx_done1 = 0              938981
dout1 = 11010100, rx1 = 1, rx_done1 = 0              938981
dout1 = 11110100, rx1 = 1, rx_done1 = 0              991141
dout1 = 11110000, rx1 = 1, rx_done1 = 0              991141
dout1 = 11101000, rx1 = 1, rx_done1 = 0              991141
dout1 = 11101010, rx1 = 1, rx_done1 = 0              991142
dout1 = 11101011, rx1 = 1, rx_done1 = 0             1043301
dout1 = 11101111, rx1 = 1, rx_done1 = 0             1043301
dout1 = 11110111, rx1 = 1, rx_done1 = 0             1043301
dout1 = 11110101, rx1 = 1, rx_done1 = 0             1043302
din2 = 11110101, tx2 = 0, tx_done2 = 0             1069379
dout1 = 11110101, rx1 = 0, rx_done1 = 0             1069379
din2 = 11110101, tx2 = 1, tx_done2 = 0             1121539
dout1 = 11110101, rx1 = 1, rx_done1 = 0             1121539
dout1 = 11110101, rx1 = 1, rx_done1 = 1             1199785
dout1 = 11110100, rx1 = 1, rx_done1 = 1             1199801
dout1 = 10010100, rx1 = 1, rx_done1 = 1             1199801
dout1 = 00010100, rx1 = 1, rx_done1 = 1             1199801
dout1 = 00010000, rx1 = 1, rx_done1 = 1             1199801
dout1 = 00000000, rx1 = 1, rx_done1 = 1             1199801
dout1 = 00000000, rx1 = 1, rx_done1 = 0             1199805
din2 = 11110101, tx2 = 1, tx_done2 = 1             1225859
din2 = 11110101, tx2 = 1, tx_done2 = 0             1225879
din2 = 11110101, tx2 = 0, tx_done2 = 0             1225879
dout1 = 00000000, rx1 = 0, rx_done1 = 0             1225879
din2 = 11110101, tx2 = 1, tx_done2 = 0             1278019
dout1 = 00000000, rx1 = 1, rx_done1 = 0             1278019
dout1 = 10000000, rx1 = 1, rx_done1 = 0             1304101
din2 = 11110101, tx2 = 0, tx_done2 = 0             1330179
dout1 = 10000000, rx1 = 0, rx_done1 = 0             1330179
dout1 = 11000000, rx1 = 0, rx_done1 = 0             1356261
dout1 = 01000000, rx1 = 0, rx_done1 = 0             1356261
din2 = 11110101, tx2 = 1, tx_done2 = 0             1382339
dout1 = 01000000, rx1 = 1, rx_done1 = 0             1382339
dout1 = 00100000, rx1 = 1, rx_done1 = 0             1408421
dout1 = 10100000, rx1 = 1, rx_done1 = 0             1408421
din2 = 11110101, tx2 = 0, tx_done2 = 0             1434499
dout1 = 10100000, rx1 = 0, rx_done1 = 0             1434499
dout1 = 11000000, rx1 = 0, rx_done1 = 0             1460581
dout1 = 01000000, rx1 = 0, rx_done1 = 0             1460581
dout1 = 01010000, rx1 = 0, rx_done1 = 0             1460581
din2 = 11110101, tx2 = 1, tx_done2 = 0             1486659
dout1 = 01010000, rx1 = 1, rx_done1 = 0             1486659
